{
  "runtimeTarget": {
    "name": ".NETStandard,Version=v2.0/",
    "signature": "1d1eaea0eb5de42d725cff5f4c42963be595a2cd"
  },
  "compilationOptions": {},
  "targets": {
    ".NETStandard,Version=v2.0": {},
    ".NETStandard,Version=v2.0/": {
      "Cake.IIS/1.0.0": {
        "dependencies": {
          "Cake.Core": "0.33.0",
          "Microsoft.Web.Administration": "11.1.0",
          "NETStandard.Library": "2.0.3"
        },
        "runtime": {
          "Cake.IIS.dll": {}
        }
      },
      "Cake.Core/0.33.0": {
        "dependencies": {
          "Microsoft.Extensions.DependencyModel": "2.0.4",
          "Microsoft.Win32.Registry": "4.4.0",
          "Newtonsoft.Json": "11.0.2"
        },
        "runtime": {
          "lib/netstandard2.0/Cake.Core.dll": {
            "assemblyVersion": "0.33.0.0",
            "fileVersion": "0.33.0.0"
          }
        }
      },
      "Microsoft.DotNet.PlatformAbstractions/2.0.4": {
        "dependencies": {
          "System.AppContext": "4.1.0",
          "System.Collections": "4.0.11",
          "System.IO": "4.1.0",
          "System.IO.FileSystem": "4.0.1",
          "System.Reflection.TypeExtensions": "4.4.0",
          "System.Runtime.Extensions": "4.1.0",
          "System.Runtime.InteropServices": "4.1.0",
          "System.Runtime.InteropServices.RuntimeInformation": "4.0.0"
        },
        "runtime": {
          "lib/netstandard1.3/Microsoft.DotNet.PlatformAbstractions.dll": {
            "assemblyVersion": "2.0.4.0",
            "fileVersion": "2.0.4.0"
          }
        }
      },
      "Microsoft.Extensions.DependencyModel/2.0.4": {
        "dependencies": {
          "Microsoft.DotNet.PlatformAbstractions": "2.0.4",
          "Newtonsoft.Json": "11.0.2",
          "System.Diagnostics.Debug": "4.0.11",
          "System.Dynamic.Runtime": "4.0.11",
          "System.Linq": "4.1.0"
        },
        "runtime": {
          "lib/netstandard1.6/Microsoft.Extensions.DependencyModel.dll": {
            "assemblyVersion": "2.0.4.0",
            "fileVersion": "2.0.4.0"
          }
        }
      },
      "Microsoft.NETCore.Platforms/1.1.0": {},
      "Microsoft.NETCore.Targets/1.0.1": {},
      "Microsoft.Web.Administration/11.1.0": {
        "dependencies": {
          "Microsoft.Win32.Registry": "4.4.0",
          "NETStandard.Library": "2.0.3",
          "System.Diagnostics.TraceSource": "4.0.0",
          "System.Reflection.TypeExtensions": "4.4.0",
          "System.Security.Principal.Windows": "4.4.0",
          "System.ServiceProcess.ServiceController": "4.1.0"
        },
        "runtime": {
          "lib/netstandard1.5/Microsoft.Web.Administration.dll": {
            "assemblyVersion": "10.0.0.0",
            "fileVersion": "10.0.17025.1000"
          }
        }
      },
      "Microsoft.Win32.Primitives/4.0.1": {
        "dependencies": {
          "Microsoft.NETCore.Platforms": "1.1.0",
          "Microsoft.NETCore.Targets": "1.0.1",
          "System.Runtime": "4.1.0"
        }
      },
      "Microsoft.Win32.Registry/4.4.0": {
        "dependencies": {
          "System.Security.AccessControl": "4.4.0",
          "System.Security.Principal.Windows": "4.4.0"
        },
        "runtime": {
          "lib/netstandard2.0/Microsoft.Win32.Registry.dll": {
            "assemblyVersion": "4.1.0.0",
            "fileVersion": "4.6.25519.3"
          }
        }
      },
      "NETStandard.Library/2.0.3": {
        "dependencies": {
          "Microsoft.NETCore.Platforms": "1.1.0"
        }
      },
      "Newtonsoft.Json/11.0.2": {
        "runtime": {
          "lib/netstandard2.0/Newtonsoft.Json.dll": {
            "assemblyVersion": "11.0.0.0",
            "fileVersion": "11.0.2.21924"
          }
        }
      },
      "runtime.native.System/4.0.0": {
        "dependencies": {
          "Microsoft.NETCore.Platforms": "1.1.0",
          "Microsoft.NETCore.Targets": "1.0.1"
        }
      },
      "System.AppContext/4.1.0": {
        "dependencies": {
          "System.Runtime": "4.1.0"
        },
        "runtime": {
          "lib/netstandard1.6/System.AppContext.dll": {
            "assemblyVersion": "4.1.0.0",
            "fileVersion": "1.0.24212.1"
          }
        }
      },
      "System.Collections/4.0.11": {
        "dependencies": {
          "Microsoft.NETCore.Platforms": "1.1.0",
          "Microsoft.NETCore.Targets": "1.0.1",
          "System.Runtime": "4.1.0"
        }
      },
      "System.Diagnostics.Debug/4.0.11": {
        "dependencies": {
          "Microsoft.NETCore.Platforms": "1.1.0",
          "Microsoft.NETCore.Targets": "1.0.1",
          "System.Runtime": "4.1.0"
        }
      },
      "System.Diagnostics.TraceSource/4.0.0": {
        "dependencies": {
          "Microsoft.NETCore.Platforms": "1.1.0",
          "System.Collections": "4.0.11",
          "System.Diagnostics.Debug": "4.0.11",
          "System.Globalization": "4.0.11",
          "System.Resources.ResourceManager": "4.0.1",
          "System.Runtime": "4.1.0",
          "System.Runtime.Extensions": "4.1.0",
          "System.Threading": "4.0.11",
          "runtime.native.System": "4.0.0"
        }
      },
      "System.Dynamic.Runtime/4.0.11": {
        "dependencies": {
          "System.Collections": "4.0.11",
          "System.Diagnostics.Debug": "4.0.11",
          "System.Globalization": "4.0.11",
          "System.Linq": "4.1.0",
          "System.Linq.Expressions": "4.1.0",
          "System.ObjectModel": "4.0.12",
          "System.Reflection": "4.1.0",
          "System.Reflection.Emit": "4.0.1",
          "System.Reflection.Emit.ILGeneration": "4.0.1",
          "System.Reflection.Primitives": "4.0.1",
          "System.Reflection.TypeExtensions": "4.4.0",
          "System.Resources.ResourceManager": "4.0.1",
          "System.Runtime": "4.1.0",
          "System.Runtime.Extensions": "4.1.0",
          "System.Threading": "4.0.11"
        },
        "runtime": {
          "lib/netstandard1.3/System.Dynamic.Runtime.dll": {
            "assemblyVersion": "4.0.11.0",
            "fileVersion": "1.0.24212.1"
          }
        }
      },
      "System.Globalization/4.0.11": {
        "dependencies": {
          "Microsoft.NETCore.Platforms": "1.1.0",
          "Microsoft.NETCore.Targets": "1.0.1",
          "System.Runtime": "4.1.0"
        }
      },
      "System.IO/4.1.0": {
        "dependencies": {
          "Microsoft.NETCore.Platforms": "1.1.0",
          "Microsoft.NETCore.Targets": "1.0.1",
          "System.Runtime": "4.1.0",
          "System.Text.Encoding": "4.0.11",
          "System.Threading.Tasks": "4.0.11"
        }
      },
      "System.IO.FileSystem/4.0.1": {
        "dependencies": {
          "Microsoft.NETCore.Platforms": "1.1.0",
          "Microsoft.NETCore.Targets": "1.0.1",
          "System.IO": "4.1.0",
          "System.IO.FileSystem.Primitives": "4.0.1",
          "System.Runtime": "4.1.0",
          "System.Runtime.Handles": "4.0.1",
          "System.Text.Encoding": "4.0.11",
          "System.Threading.Tasks": "4.0.11"
        }
      },
      "System.IO.FileSystem.Primitives/4.0.1": {
        "dependencies": {
          "System.Runtime": "4.1.0"
        },
        "runtime": {
          "lib/netstandard1.3/System.IO.FileSystem.Primitives.dll": {
            "assemblyVersion": "4.0.1.0",
            "fileVersion": "1.0.24212.1"
          }
        }
      },
      "System.Linq/4.1.0": {
        "dependencies": {
          "System.Collections": "4.0.11",
          "System.Diagnostics.Debug": "4.0.11",
          "System.Resources.ResourceManager": "4.0.1",
          "System.Runtime": "4.1.0",
          "System.Runtime.Extensions": "4.1.0"
        },
        "runtime": {
          "lib/netstandard1.6/System.Linq.dll": {
            "assemblyVersion": "4.1.0.0",
            "fileVersion": "1.0.24212.1"
          }
        }
      },
      "System.Linq.Expressions/4.1.0": {
        "dependencies": {
          "System.Collections": "4.0.11",
          "System.Diagnostics.Debug": "4.0.11",
          "System.Globalization": "4.0.11",
          "System.IO": "4.1.0",
          "System.Linq": "4.1.0",
          "System.ObjectModel": "4.0.12",
          "System.Reflection": "4.1.0",
          "System.Reflection.Emit": "4.0.1",
          "System.Reflection.Emit.ILGeneration": "4.0.1",
          "System.Reflection.Emit.Lightweight": "4.0.1",
          "System.Reflection.Extensions": "4.0.1",
          "System.Reflection.Primitives": "4.0.1",
          "System.Reflection.TypeExtensions": "4.4.0",
          "System.Resources.ResourceManager": "4.0.1",
          "System.Runtime": "4.1.0",
          "System.Runtime.Extensions": "4.1.0",
          "System.Threading": "4.0.11"
        },
        "runtime": {
          "lib/netstandard1.6/System.Linq.Expressions.dll": {
            "assemblyVersion": "4.1.0.0",
            "fileVersion": "1.0.24212.1"
          }
        }
      },
      "System.ObjectModel/4.0.12": {
        "dependencies": {
          "System.Collections": "4.0.11",
          "System.Diagnostics.Debug": "4.0.11",
          "System.Resources.ResourceManager": "4.0.1",
          "System.Runtime": "4.1.0",
          "System.Threading": "4.0.11"
        },
        "runtime": {
          "lib/netstandard1.3/System.ObjectModel.dll": {
            "assemblyVersion": "4.0.12.0",
            "fileVersion": "1.0.24212.1"
          }
        }
      },
      "System.Reflection/4.1.0": {
        "dependencies": {
          "Microsoft.NETCore.Platforms": "1.1.0",
          "Microsoft.NETCore.Targets": "1.0.1",
          "System.IO": "4.1.0",
          "System.Reflection.Primitives": "4.0.1",
          "System.Runtime": "4.1.0"
        }
      },
      "System.Reflection.Emit/4.0.1": {
        "dependencies": {
          "System.IO": "4.1.0",
          "System.Reflection": "4.1.0",
          "System.Reflection.Emit.ILGeneration": "4.0.1",
          "System.Reflection.Primitives": "4.0.1",
          "System.Runtime": "4.1.0"
        },
        "runtime": {
          "lib/netstandard1.3/System.Reflection.Emit.dll": {
            "assemblyVersion": "4.0.1.0",
            "fileVersion": "1.0.24212.1"
          }
        }
      },
      "System.Reflection.Emit.ILGeneration/4.0.1": {
        "dependencies": {
          "System.Reflection": "4.1.0",
          "System.Reflection.Primitives": "4.0.1",
          "System.Runtime": "4.1.0"
        },
        "runtime": {
          "lib/netstandard1.3/System.Reflection.Emit.ILGeneration.dll": {
            "assemblyVersion": "4.0.1.0",
            "fileVersion": "1.0.24212.1"
          }
        }
      },
      "System.Reflection.Emit.Lightweight/4.0.1": {
        "dependencies": {
          "System.Reflection": "4.1.0",
          "System.Reflection.Emit.ILGeneration": "4.0.1",
          "System.Reflection.Primitives": "4.0.1",
          "System.Runtime": "4.1.0"
        },
        "runtime": {
          "lib/netstandard1.3/System.Reflection.Emit.Lightweight.dll": {
            "assemblyVersion": "4.0.1.0",
            "fileVersion": "1.0.24212.1"
          }
        }
      },
      "System.Reflection.Extensions/4.0.1": {
        "dependencies": {
          "Microsoft.NETCore.Platforms": "1.1.0",
          "Microsoft.NETCore.Targets": "1.0.1",
          "System.Reflection": "4.1.0",
          "System.Runtime": "4.1.0"
        }
      },
      "System.Reflection.Primitives/4.0.1": {
        "dependencies": {
          "Microsoft.NETCore.Platforms": "1.1.0",
          "Microsoft.NETCore.Targets": "1.0.1",
          "System.Runtime": "4.1.0"
        }
      },
      "System.Reflection.TypeExtensions/4.4.0": {
        "runtime": {
          "lib/netstandard2.0/System.Reflection.TypeExtensions.dll": {
            "assemblyVersion": "4.1.2.0",
            "fileVersion": "4.6.25519.3"
          }
        }
      },
      "System.Resources.ResourceManager/4.0.1": {
        "dependencies": {
          "Microsoft.NETCore.Platforms": "1.1.0",
          "Microsoft.NETCore.Targets": "1.0.1",
          "System.Globalization": "4.0.11",
          "System.Reflection": "4.1.0",
          "System.Runtime": "4.1.0"
        }
      },
      "System.Runtime/4.1.0": {
        "dependencies": {
          "Microsoft.NETCore.Platforms": "1.1.0",
          "Microsoft.NETCore.Targets": "1.0.1"
        }
      },
      "System.Runtime.Extensions/4.1.0": {
        "dependencies": {
          "Microsoft.NETCore.Platforms": "1.1.0",
          "Microsoft.NETCore.Targets": "1.0.1",
          "System.Runtime": "4.1.0"
        }
      },
      "System.Runtime.Handles/4.0.1": {
        "dependencies": {
          "Microsoft.NETCore.Platforms": "1.1.0",
          "Microsoft.NETCore.Targets": "1.0.1",
          "System.Runtime": "4.1.0"
        }
      },
      "System.Runtime.InteropServices/4.1.0": {
        "dependencies": {
          "Microsoft.NETCore.Platforms": "1.1.0",
          "Microsoft.NETCore.Targets": "1.0.1",
          "System.Reflection": "4.1.0",
          "System.Reflection.Primitives": "4.0.1",
          "System.Runtime": "4.1.0",
          "System.Runtime.Handles": "4.0.1"
        }
      },
      "System.Runtime.InteropServices.RuntimeInformation/4.0.0": {
        "dependencies": {
          "Microsoft.NETCore.Platforms": "1.1.0",
          "System.Reflection": "4.1.0",
          "System.Resources.ResourceManager": "4.0.1",
          "System.Runtime": "4.1.0",
          "System.Runtime.InteropServices": "4.1.0",
          "System.Threading": "4.0.11",
          "runtime.native.System": "4.0.0"
        }
      },
      "System.Security.AccessControl/4.4.0": {
        "dependencies": {
          "System.Security.Principal.Windows": "4.4.0"
        },
        "runtime": {
          "lib/netstandard2.0/System.Security.AccessControl.dll": {
            "assemblyVersion": "4.1.0.0",
            "fileVersion": "4.6.25519.3"
          }
        }
      },
      "System.Security.Principal.Windows/4.4.0": {
        "runtime": {
          "lib/netstandard2.0/System.Security.Principal.Windows.dll": {
            "assemblyVersion": "4.1.0.0",
            "fileVersion": "4.6.25519.3"
          }
        }
      },
      "System.ServiceProcess.ServiceController/4.1.0": {
        "dependencies": {
          "Microsoft.NETCore.Platforms": "1.1.0",
          "Microsoft.Win32.Primitives": "4.0.1",
          "System.Collections": "4.0.11",
          "System.Resources.ResourceManager": "4.0.1",
          "System.Runtime": "4.1.0",
          "System.Runtime.Handles": "4.0.1",
          "System.Runtime.InteropServices": "4.1.0",
          "System.Threading": "4.0.11"
        }
      },
      "System.Text.Encoding/4.0.11": {
        "dependencies": {
          "Microsoft.NETCore.Platforms": "1.1.0",
          "Microsoft.NETCore.Targets": "1.0.1",
          "System.Runtime": "4.1.0"
        }
      },
      "System.Threading/4.0.11": {
        "dependencies": {
          "System.Runtime": "4.1.0",
          "System.Threading.Tasks": "4.0.11"
        },
        "runtime": {
          "lib/netstandard1.3/System.Threading.dll": {
            "assemblyVersion": "4.0.11.0",
            "fileVersion": "1.0.24212.1"
          }
        }
      },
      "System.Threading.Tasks/4.0.11": {
        "dependencies": {
          "Microsoft.NETCore.Platforms": "1.1.0",
          "Microsoft.NETCore.Targets": "1.0.1",
          "System.Runtime": "4.1.0"
        }
      }
    }
  },
  "libraries": {
    "Cake.IIS/1.0.0": {
      "type": "project",
      "serviceable": false,
      "sha512": ""
    },
    "Cake.Core/0.33.0": {
      "type": "package",
      "serviceable": true,
      "sha512": "sha512-ckzh0RifRIA1Cszy0ii91pJExlQT3iueF/M0UWE97T8mk7iRJcX+BqtPVSvPzrsyPfxUznz1W+va79EPCnjpBw==",
      "path": "cake.core/0.33.0",
      "hashPath": "cake.core.0.33.0.nupkg.sha512"
    },
    "Microsoft.DotNet.PlatformAbstractions/2.0.4": {
      "type": "package",
      "serviceable": true,
      "sha512": "sha512-2HjSGp63VCLQaeGadrLYR868g25mJHr+TFF81yWCaClzjUbU2vNDx6km7SUgPnoLVksE/1e7in88eh+oPtc4aQ==",
      "path": "microsoft.dotnet.platformabstractions/2.0.4",
      "hashPath": "microsoft.dotnet.platformabstractions.2.0.4.nupkg.sha512"
    },
    "Microsoft.Extensions.DependencyModel/2.0.4": {
      "type": "package",
      "serviceable": true,
      "sha512": "sha512-jnHAeijsfJFQXdXmnYK/NhQIkgBUeth//RZZkf0ldIKC+jARbf7YxbA9uTrs/EPhuQxHXaDxVuMyscgmL+UqfA==",
      "path": "microsoft.extensions.dependencymodel/2.0.4",
      "hashPath": "microsoft.extensions.dependencymodel.2.0.4.nupkg.sha512"
    },
    "Microsoft.NETCore.Platforms/1.1.0": {
      "type": "package",
      "serviceable": true,
      "sha512": "sha512-MVxohgkHpEqP04QSezDy32SdtKk6x23tugkvYxwEwUPHQnnVoEnOs1XVNOWrCS/Vm5owMgCnjAPiYfFjnDnibw==",
      "path": "microsoft.netcore.platforms/1.1.0",
      "hashPath": "microsoft.netcore.platforms.1.1.0.nupkg.sha512"
    },
    "Microsoft.NETCore.Targets/1.0.1": {
      "type": "package",
      "serviceable": true,
      "sha512": "sha512-bq2iJdHfQg4bwHz6USZyV+241QsHBVsqloH91vhe9FfsKMcOgEo4pQOF0V7v6JjcOQIMnul/at7RASiHwiUPKA==",
      "path": "microsoft.netcore.targets/1.0.1",
      "hashPath": "microsoft.netcore.targets.1.0.1.nupkg.sha512"
    },
    "Microsoft.Web.Administration/11.1.0": {
      "type": "package",
      "serviceable": true,
      "sha512": "sha512-aVdukBSBsbUJKHvSpfgTnmm6HEOKKJ5l8HXh0F05t7bYMRUzViYD8knqcs55xjnVzyO0epHd+r4TgWt/sSyuQg==",
      "path": "microsoft.web.administration/11.1.0",
      "hashPath": "microsoft.web.administration.11.1.0.nupkg.sha512"
    },
    "Microsoft.Win32.Primitives/4.0.1": {
      "type": "package",
      "serviceable": true,
      "sha512": "sha512-CAZ4adDTkm8pMbnWuGWLSJkAPYWtNh7+kgsoSfzYMs8mIhhkPlAhptAPh2D1B88/AhgIsDniwShC2OFVPJya8g==",
      "path": "microsoft.win32.primitives/4.0.1",
      "hashPath": "microsoft.win32.primitives.4.0.1.nupkg.sha512"
    },
    "Microsoft.Win32.Registry/4.4.0": {
      "type": "package",
      "serviceable": true,
      "sha512": "sha512-dA36TlNVn/XfrZtmf0fiI/z1nd3Wfp2QVzTdj26pqgP9LFWq0i1hYEUAW50xUjGFYn1+/cP3KGuxT2Yn1OUNBQ==",
      "path": "microsoft.win32.registry/4.4.0",
      "hashPath": "microsoft.win32.registry.4.4.0.nupkg.sha512"
    },
    "NETStandard.Library/2.0.3": {
      "type": "package",
      "serviceable": true,
      "sha512": "sha512-st47PosZSHrjECdjeIzZQbzivYBJFv6P2nv4cj2ypdI204DO+vZ7l5raGMiX4eXMJ53RfOIg+/s4DHVZ54Nu2A==",
      "path": "netstandard.library/2.0.3",
      "hashPath": "netstandard.library.2.0.3.nupkg.sha512"
    },
    "Newtonsoft.Json/11.0.2": {
      "type": "package",
      "serviceable": true,
      "sha512": "sha512-IvJe1pj7JHEsP8B8J8DwlMEx8UInrs/x+9oVY+oCD13jpLu4JbJU2WCIsMRn5C4yW9+DgkaO8uiVE5VHKjpmdQ==",
      "path": "newtonsoft.json/11.0.2",
      "hashPath": "newtonsoft.json.11.0.2.nupkg.sha512"
    },
    "runtime.native.System/4.0.0": {
      "type": "package",
      "serviceable": true,
      "sha512": "sha512-Wh56fI/LblX/vZOjUrUO+m7OyrMOSLcXIQ+frjsm4R6I4CmQ4b/ZsOSOm+ae79sYEz9sb6FDCTiAYuzdE4Z+Vw==",
      "path": "runtime.native.system/4.0.0",
      "hashPath": "runtime.native.system.4.0.0.nupkg.sha512"
    },
    "System.AppContext/4.1.0": {
      "type": "package",
      "serviceable": true,
      "sha512": "sha512-4EEP0mjUKxCdA7Vz7pcfbwRvPoX0TZvdPCWAMXqNRn9BlFPCvPInZkxURb4U1RVO3UmIsAbGmYYP516nY90kKw==",
      "path": "system.appcontext/4.1.0",
      "hashPath": "system.appcontext.4.1.0.nupkg.sha512"
    },
    "System.Collections/4.0.11": {
      "type": "package",
      "serviceable": true,
      "sha512": "sha512-hSJq+gUQbUQ38gxs0dLP9iNu6LmPOp8EAMiqxayVDIXtECIphrSI4DDzN2d7XfEooLsg3gA56/+2P+Ys31CbYg==",
      "path": "system.collections/4.0.11",
      "hashPath": "system.collections.4.0.11.nupkg.sha512"
    },
    "System.Diagnostics.Debug/4.0.11": {
      "type": "package",
      "serviceable": true,
      "sha512": "sha512-UrVzJE5Q0oen1w2epn6A18+aSIvIQwguYWZOv08zZUaquQY1T6jmkw4jKLlVUeLLPV7yPWjgLnhUE3tA2lOoVw==",
      "path": "system.diagnostics.debug/4.0.11",
      "hashPath": "system.diagnostics.debug.4.0.11.nupkg.sha512"
    },
    "System.Diagnostics.TraceSource/4.0.0": {
      "type": "package",
      "serviceable": true,
      "sha512": "sha512-6WVCczFZKXwpWpzd/iJkYnsmWTSFFiU24Xx/YdHXBcu+nFI/ehTgeqdJQFbtRPzbrO3KtRNjvkhtj4t5/WwWsA==",
      "path": "system.diagnostics.tracesource/4.0.0",
      "hashPath": "system.diagnostics.tracesource.4.0.0.nupkg.sha512"
    },
    "System.Dynamic.Runtime/4.0.11": {
      "type": "package",
      "serviceable": true,
      "sha512": "sha512-I2FekeBLoZZPHqymuUIsPPoUmdr45oW68FBnRorPsnj6jrbDyyB1YA8Z6UxbDihX8GEhqXiIfEwUjwxQOEYKfw==",
      "path": "system.dynamic.runtime/4.0.11",
      "hashPath": "system.dynamic.runtime.4.0.11.nupkg.sha512"
    },
    "System.Globalization/4.0.11": {
      "type": "package",
      "serviceable": true,
      "sha512": "sha512-YQZT3B1M2+SKLEyC8GJfuH9QQqHaMTiW7fw746rDldGL+VfYHrPedWWUUxC4c3+JQ+fKg/edxAq/k+Q4iTkLVA==",
      "path": "system.globalization/4.0.11",
      "hashPath": "system.globalization.4.0.11.nupkg.sha512"
    },
    "System.IO/4.1.0": {
      "type": "package",
      "serviceable": true,
      "sha512": "sha512-jvMtL8uOJ5GcXznH5+LPK8cauIc9Klni/CNLSKMleWkBwDeh5VtHNhDnn4gnwBYKm65tpWMtlqUw2gJCrTyUZA==",
      "path": "system.io/4.1.0",
      "hashPath": "system.io.4.1.0.nupkg.sha512"
    },
    "System.IO.FileSystem/4.0.1": {
      "type": "package",
      "serviceable": true,
      "sha512": "sha512-fbJDduv0o7hqZ8ioYI9zV1RL4ZN1O/qtQJU3uHKrt5RhWW1mgLXXO90PIPoE/kRsctgWPFCcpB67JZCu9FszEA==",
      "path": "system.io.filesystem/4.0.1",
      "hashPath": "system.io.filesystem.4.0.1.nupkg.sha512"
    },
    "System.IO.FileSystem.Primitives/4.0.1": {
      "type": "package",
      "serviceable": true,
      "sha512": "sha512-qdPmP0EK4QVWx8pLGpo2vuld1j3fnDaiVANeZfi8BjD57oSzsVMZLmKkdHLxro1etthvW2annwXkxohzKw0DHw==",
      "path": "system.io.filesystem.primitives/4.0.1",
      "hashPath": "system.io.filesystem.primitives.4.0.1.nupkg.sha512"
    },
    "System.Linq/4.1.0": {
      "type": "package",
      "serviceable": true,
      "sha512": "sha512-SjmcYXV3jW9Tm+URbf6CJPpsoViHdifCdNduJaQjNvmhL2JvI0jUjktLqtnoib/71mm9htRDCUGAn7ds9FCi0A==",
      "path": "system.linq/4.1.0",
      "hashPath": "system.linq.4.1.0.nupkg.sha512"
    },
    "System.Linq.Expressions/4.1.0": {
      "type": "package",
      "serviceable": true,
      "sha512": "sha512-SNPpUv01jGDC6/p/YkbMYV7vF0hquutoTQ0gCZVIu5l1pjG379jLta5lPhxZYRJnmFgHvqDyzdlui22v9+3UWg==",
      "path": "system.linq.expressions/4.1.0",
      "hashPath": "system.linq.expressions.4.1.0.nupkg.sha512"
    },
    "System.ObjectModel/4.0.12": {
      "type": "package",
      "serviceable": true,
      "sha512": "sha512-2tLkX1K91tfB3l9sKydEiZUfl8DR/2gi9FEwUydYexd1zq7j/EeIc2D+arsvaIkmTPAZAw/oHl+3wveKOPxyNA==",
      "path": "system.objectmodel/4.0.12",
      "hashPath": "system.objectmodel.4.0.12.nupkg.sha512"
    },
    "System.Reflection/4.1.0": {
      "type": "package",
      "serviceable": true,
      "sha512": "sha512-qR3ZIcZVYbimU5ZdpGBfMSAp1qqMh+G5lCt6OwMJ3jtVcMGhOK/JNnnMJ4OP7Z46lYuHdA5kJw58s6Bf0yCWIg==",
      "path": "system.reflection/4.1.0",
      "hashPath": "system.reflection.4.1.0.nupkg.sha512"
    },
    "System.Reflection.Emit/4.0.1": {
      "type": "package",
      "serviceable": true,
      "sha512": "sha512-52ewF/nCBA6+ihzlY+4+0rfBRZYE0cjWP2s9MkUh5TX4FQ29uBczLz72jRJIHMG5EByL5n72e7fdpHlGRVP39A==",
      "path": "system.reflection.emit/4.0.1",
      "hashPath": "system.reflection.emit.4.0.1.nupkg.sha512"
    },
    "System.Reflection.Emit.ILGeneration/4.0.1": {
      "type": "package",
      "serviceable": true,
      "sha512": "sha512-4KnrRyxysoELuM3LOCEIkwPE6c35V9rKghdjP6drpSD9rt6pbNpiqeHz0hPIoD60O6CeSqhbhMamNnpGpF/57w==",
      "path": "system.reflection.emit.ilgeneration/4.0.1",
      "hashPath": "system.reflection.emit.ilgeneration.4.0.1.nupkg.sha512"
    },
    "System.Reflection.Emit.Lightweight/4.0.1": {
      "type": "package",
      "serviceable": true,
      "sha512": "sha512-h6bUwEdN/j+4THf76KznJhB5vP5zwXPzZ1gKCsVNqjM6QuGt8EPl1gY69rm7/VxbF8nCYzW2z+5ANmavyr+G8g==",
      "path": "system.reflection.emit.lightweight/4.0.1",
      "hashPath": "system.reflection.emit.lightweight.4.0.1.nupkg.sha512"
    },
    "System.Reflection.Extensions/4.0.1": {
      "type": "package",
      "serviceable": true,
      "sha512": "sha512-XW6Ds448bNGsSwPxIsI5ErJz2PT7Is+B3xvaaBYcUdk1SzjEDajmArZ6z4/5hWg8jk9ZrEisckow1tyBZJRL9g==",
      "path": "system.reflection.extensions/4.0.1",
      "hashPath": "system.reflection.extensions.4.0.1.nupkg.sha512"
    },
    "System.Reflection.Primitives/4.0.1": {
      "type": "package",
      "serviceable": true,
      "sha512": "sha512-+aycG7FuCxaaUO2DrWbxxfzHqmPQ8kIpb+0kd3xI6kuYOjYz4Qo0/jZeAz/lbYBl0P759HBvpFaNlWm88Okyww==",
      "path": "system.reflection.primitives/4.0.1",
      "hashPath": "system.reflection.primitives.4.0.1.nupkg.sha512"
    },
    "System.Reflection.TypeExtensions/4.4.0": {
      "type": "package",
      "serviceable": true,
      "sha512": "sha512-dkmh/ySlwnXJp/1qYP9uyKkCK1CXR/REFzl7abHcArxBcV91mY2CgrrzSRA5Z/X4MevJWwXsklGRdR3A7K9zbg==",
      "path": "system.reflection.typeextensions/4.4.0",
      "hashPath": "system.reflection.typeextensions.4.4.0.nupkg.sha512"
    },
    "System.Resources.ResourceManager/4.0.1": {
      "type": "package",
      "serviceable": true,
      "sha512": "sha512-JerJmW5ciwso9ePu4lXqwCrkkSISiQVO3BuIn3Oe1mVzUOnOTn2Zg2QJNOZ11zQpMhDuepPc9ic87VboFPGDvA==",
      "path": "system.resources.resourcemanager/4.0.1",
      "hashPath": "system.resources.resourcemanager.4.0.1.nupkg.sha512"
    },
    "System.Runtime/4.1.0": {
      "type": "package",
      "serviceable": true,
      "sha512": "sha512-m8TJzT51zUVapgrYCEXQcLZASbrG522M7o1P1fgvXZ5eW/wXiHCeo1bnzoouObHrNr4iYZzFu5ZViRuG/GgRgQ==",
      "path": "system.runtime/4.1.0",
      "hashPath": "system.runtime.4.1.0.nupkg.sha512"
    },
    "System.Runtime.Extensions/4.1.0": {
      "type": "package",
      "serviceable": true,
      "sha512": "sha512-HsyZb3RRlSK28jYCYb/HNxMwtmGf43tMafDDWAoE2CkaKt6nksBczNSZdD/BK7GCMf0fiXsocuFvu9H4WkTT8w==",
      "path": "system.runtime.extensions/4.1.0",
      "hashPath": "system.runtime.extensions.4.1.0.nupkg.sha512"
    },
    "System.Runtime.Handles/4.0.1": {
      "type": "package",
      "serviceable": true,
      "sha512": "sha512-i5nJVefI65glPe2meUmX52X7B8nMiiRsbVGNLlktuROOZB22OdByPYwo6l8fL/t4kiyoSSOxfXlUNI8hX+t1yA==",
      "path": "system.runtime.handles/4.0.1",
      "hashPath": "system.runtime.handles.4.0.1.nupkg.sha512"
    },
    "System.Runtime.InteropServices/4.1.0": {
      "type": "package",
      "serviceable": true,
      "sha512": "sha512-mB3HPZh9GHpylH36S2EXWeNRgiBbL7S3BGfFT6UAPNH0t3UH0+QJSbLuHsUMtDDd4GRVSOwyvnFhqSm9Hj11SA==",
      "path": "system.runtime.interopservices/4.1.0",
      "hashPath": "system.runtime.interopservices.4.1.0.nupkg.sha512"
    },
    "System.Runtime.InteropServices.RuntimeInformation/4.0.0": {
      "type": "package",
      "serviceable": true,
      "sha512": "sha512-n1/gRatysOhNjvB69dlaxrh2OWY2yEeMfWerwGSFEunqc/sv8lF/3l1lpKHqiv52HrFbpkXdu+8xUHo0jH8lhA==",
      "path": "system.runtime.interopservices.runtimeinformation/4.0.0",
      "hashPath": "system.runtime.interopservices.runtimeinformation.4.0.0.nupkg.sha512"
    },
    "System.Security.AccessControl/4.4.0": {
      "type": "package",
      "serviceable": true,
      "sha512": "sha512-2NRFPX/V81ucKQmqNgGBZrKGH/5ejsvivSGMRum0SMgPnJxwhuNkzVS1+7gC3R2X0f57CtwrPrXPPSe6nOp82g==",
      "path": "system.security.accesscontrol/4.4.0",
      "hashPath": "system.security.accesscontrol.4.4.0.nupkg.sha512"
    },
    "System.Security.Principal.Windows/4.4.0": {
      "type": "package",
      "serviceable": true,
      "sha512": "sha512-pP+AOzt1o3jESOuLmf52YQTF7H3Ng9hTnrOESQiqsnl2IbBh1HInsAMHYtoh75iUYV0OIkHmjvveraYB6zM97w==",
      "path": "system.security.principal.windows/4.4.0",
      "hashPath": "system.security.principal.windows.4.4.0.nupkg.sha512"
    },
    "System.ServiceProcess.ServiceController/4.1.0": {
      "type": "package",
      "serviceable": true,
      "sha512": "sha512-qWVE9WN3+IXpOyRTZJOgDzNNHOp/oC2HaBiAv+T0w8ALWFAdfr0uH4WbFMvgYheZxXxnDXik0FyPelx2Vheaag==",
      "path": "system.serviceprocess.servicecontroller/4.1.0",
      "hashPath": "system.serviceprocess.servicecontroller.4.1.0.nupkg.sha512"
    },
    "System.Text.Encoding/4.0.11": {
      "type": "package",
      "serviceable": true,
      "sha512": "sha512-THZNtMlGRQkjJqcPOkGkC11QvF/ZoiRvg/sp6jYFjxLgQde9RXgYMAwkJDREqBhjc9YDH1qz0M9KX5hdDu1S0g==",
      "path": "system.text.encoding/4.0.11",
      "hashPath": "system.text.encoding.4.0.11.nupkg.sha512"
    },
    "System.Threading/4.0.11": {
      "type": "package",
      "serviceable": true,
      "sha512": "sha512-1FGBjoDOn8VnvldQKWj0IXJzmb0eIDNdIF0m8wSgoZRZ0RTw8qEgqtcdS3T25s9siRjTGOJzbrtU3XH+ZJlnUg==",
      "path": "system.threading/4.0.11",
      "hashPath": "system.threading.4.0.11.nupkg.sha512"
    },
    "System.Threading.Tasks/4.0.11": {
      "type": "package",
      "serviceable": true,
      "sha512": "sha512-vF3szA/s+xotFQAUNXBNmx0EK5PRe5nqSFSb+aENHdxtce6VHu9OhHGUaUvlJeAUwvnchRBO94OBa8OawfYTPQ==",
      "path": "system.threading.tasks/4.0.11",
      "hashPath": "system.threading.tasks.4.0.11.nupkg.sha512"
    }
  }
}